{
	"info": {
		"_postman_id": "e38b7d99-662c-4d31-84ac-8d6a7c03f6c7",
		"name": "COLLECTION_HerokuApp",
		"schema": "https://schema.getpostman.com/json/collection/v2.1.0/collection.json",
		"_exporter_id": "22711569"
	},
	"item": [
		{
			"name": "Post Register",
			"event": [
				{
					"listen": "test",
					"script": {
						"exec": [
							"pm.test(\"Status code is 201\", function () {\r",
							"    pm.response.to.have.status(201);\r",
							"});\r",
							"pm.test(\"Response time is less than 200ms\", function () {\r",
							"    pm.expect(pm.response.responseTime).to.be.below(200);\r",
							"});"
						],
						"type": "text/javascript"
					}
				}
			],
			"request": {
				"method": "POST",
				"header": [],
				"body": {
					"mode": "formdata",
					"formdata": [
						{
							"key": "full_name",
							"value": "Hadi",
							"type": "text"
						},
						{
							"key": "email",
							"value": "hadi008@gmail.com",
							"type": "text"
						},
						{
							"key": "password",
							"value": "12345678",
							"type": "text"
						},
						{
							"key": "phone_number",
							"value": "087889247883",
							"type": "text"
						},
						{
							"key": "address",
							"value": "Jl. Daan Mogot, Jakarta Barat",
							"type": "text"
						},
						{
							"key": "image",
							"type": "file",
							"src": []
						},
						{
							"key": "city",
							"value": "jakarta",
							"type": "text"
						}
					]
				},
				"url": {
					"raw": "{{base.url}}/auth/register",
					"host": [
						"{{base.url}}"
					],
					"path": [
						"auth",
						"register"
					]
				}
			},
			"response": [
				{
					"name": "Post Register",
					"originalRequest": {
						"method": "POST",
						"header": [],
						"body": {
							"mode": "formdata",
							"formdata": [
								{
									"key": "full_name",
									"value": "Hadi",
									"type": "text"
								},
								{
									"key": "email",
									"value": "hadi008@gmail.com",
									"type": "text"
								},
								{
									"key": "password",
									"value": "12345678",
									"type": "text"
								},
								{
									"key": "phone_number",
									"value": "087889247883",
									"type": "text"
								},
								{
									"key": "address",
									"value": "Jl. Daan Mogot, Jakarta Barat",
									"type": "text"
								},
								{
									"key": "image",
									"type": "file",
									"src": []
								},
								{
									"key": "city",
									"value": "jakarta",
									"type": "text"
								}
							]
						},
						"url": {
							"raw": "{{base.url}}/auth/register",
							"host": [
								"{{base.url}}"
							],
							"path": [
								"auth",
								"register"
							]
						}
					},
					"status": "Created",
					"code": 201,
					"_postman_previewlanguage": "json",
					"header": [
						{
							"key": "Server",
							"value": "Cowboy"
						},
						{
							"key": "Connection",
							"value": "keep-alive"
						},
						{
							"key": "X-Powered-By",
							"value": "Express"
						},
						{
							"key": "Access-Control-Allow-Origin",
							"value": "*"
						},
						{
							"key": "Content-Type",
							"value": "application/json; charset=utf-8"
						},
						{
							"key": "Content-Length",
							"value": "316"
						},
						{
							"key": "Etag",
							"value": "W/\"13c-URbWkMSAf/gmk6gExZwa/LcicGk\""
						},
						{
							"key": "Date",
							"value": "Thu, 25 Aug 2022 13:58:33 GMT"
						},
						{
							"key": "Via",
							"value": "1.1 vegur"
						}
					],
					"cookie": [],
					"body": "{\n    \"id\": 6465,\n    \"full_name\": \"Hadi\",\n    \"email\": \"hadi008@gmail.com\",\n    \"password\": \"$2b$10$RgGbKOeidGyvxXoP.Mz0BOXkhScePjMRseYU/Ec2a8cWkHPUyc3Xi\",\n    \"phone_number\": \"087889247883\",\n    \"address\": \"Jl. Daan Mogot, Jakarta Barat\",\n    \"image_url\": null,\n    \"city\": \"jakarta\",\n    \"updatedAt\": \"2022-08-25T13:58:33.526Z\",\n    \"createdAt\": \"2022-08-25T13:58:33.526Z\"\n}"
				}
			]
		},
		{
			"name": "Post seller product strawhat",
			"event": [
				{
					"listen": "test",
					"script": {
						"exec": [
							"pm.test(\"Status code is 201\", function () {\r",
							"    pm.response.to.have.status(201);\r",
							"});\r",
							"pm.test(\"Response time is less than 200ms\", function () {\r",
							"    pm.expect(pm.response.responseTime).to.be.below(200);\r",
							"});"
						],
						"type": "text/javascript"
					}
				}
			],
			"request": {
				"method": "POST",
				"header": [
					{
						"key": "access_token",
						"value": "{{base.token}}",
						"type": "text"
					}
				],
				"body": {
					"mode": "formdata",
					"formdata": [
						{
							"key": "name",
							"value": "Straw Hat Luffy",
							"type": "text"
						},
						{
							"key": "description",
							"value": "Straw Hat Luffy",
							"type": "text"
						},
						{
							"key": "base_price",
							"value": "359000",
							"type": "text"
						},
						{
							"key": "category_ids",
							"value": "1",
							"type": "text"
						},
						{
							"key": "location",
							"value": "Jakarta",
							"type": "text"
						},
						{
							"key": "image",
							"type": "file",
							"src": "/C:/Users/adihadi/Documents/QA Course/Challange Fix/Luffy-4.jpg"
						}
					]
				},
				"url": {
					"raw": "{{base.url}}/seller/product?access_token=bearer {{base.token}}",
					"host": [
						"{{base.url}}"
					],
					"path": [
						"seller",
						"product"
					],
					"query": [
						{
							"key": "access_token",
							"value": "bearer {{base.token}}"
						}
					]
				}
			},
			"response": [
				{
					"name": "Post seller product",
					"originalRequest": {
						"method": "POST",
						"header": [
							{
								"key": "access_token",
								"value": "{{base.token}}",
								"type": "text"
							}
						],
						"body": {
							"mode": "formdata",
							"formdata": [
								{
									"key": "name",
									"value": "Straw Hat Luffy",
									"type": "text"
								},
								{
									"key": "description",
									"value": "Straw Hat Luffy",
									"type": "text"
								},
								{
									"key": "base_price",
									"value": "359000",
									"type": "text"
								},
								{
									"key": "category_ids",
									"value": "1",
									"type": "text"
								},
								{
									"key": "location",
									"value": "Jakarta",
									"type": "text"
								},
								{
									"key": "image",
									"type": "file",
									"src": "/C:/Users/adihadi/Documents/QA Course/Challange Fix/Luffy-4.jpg"
								}
							]
						},
						"url": {
							"raw": "{{base.url}}/seller/product?access_token=bearer {{base.token}}",
							"host": [
								"{{base.url}}"
							],
							"path": [
								"seller",
								"product"
							],
							"query": [
								{
									"key": "access_token",
									"value": "bearer {{base.token}}"
								}
							]
						}
					},
					"status": "Created",
					"code": 201,
					"_postman_previewlanguage": "json",
					"header": [
						{
							"key": "Server",
							"value": "Cowboy"
						},
						{
							"key": "Connection",
							"value": "keep-alive"
						},
						{
							"key": "X-Powered-By",
							"value": "Express"
						},
						{
							"key": "Access-Control-Allow-Origin",
							"value": "*"
						},
						{
							"key": "Content-Type",
							"value": "application/json; charset=utf-8"
						},
						{
							"key": "Content-Length",
							"value": "410"
						},
						{
							"key": "Etag",
							"value": "W/\"19a-TPA1uf+/SEGhlZQZPWKqHIHYN2I\""
						},
						{
							"key": "Date",
							"value": "Thu, 25 Aug 2022 14:15:10 GMT"
						},
						{
							"key": "Via",
							"value": "1.1 vegur"
						}
					],
					"cookie": [],
					"body": "{\n    \"id\": 1283,\n    \"name\": \"Straw Hat Luffy\",\n    \"description\": \"Straw Hat Luffy\",\n    \"base_price\": 359000,\n    \"location\": \"Jakarta\",\n    \"user_id\": 6465,\n    \"image_url\": \"https://firebasestorage.googleapis.com/v0/b/market-final-project.appspot.com/o/products%2FPR-1661436910071-Luffy-4.jpg?alt=media\",\n    \"image_name\": \"PR-1661436910071-Luffy-4.jpg\",\n    \"updatedAt\": \"2022-08-25T14:15:10.078Z\",\n    \"createdAt\": \"2022-08-25T14:15:10.078Z\",\n    \"status\": \"available\"\n}"
				}
			]
		},
		{
			"name": "Post seller product katana zoro",
			"event": [
				{
					"listen": "test",
					"script": {
						"exec": [
							"pm.test(\"Status code is 201\", function () {\r",
							"    pm.response.to.have.status(201);\r",
							"});\r",
							"pm.test(\"Response time is less than 200ms\", function () {\r",
							"    pm.expect(pm.response.responseTime).to.be.below(200);\r",
							"});"
						],
						"type": "text/javascript"
					}
				}
			],
			"request": {
				"method": "POST",
				"header": [
					{
						"key": "access_token",
						"value": "{{base.token}}",
						"type": "text"
					}
				],
				"body": {
					"mode": "formdata",
					"formdata": [
						{
							"key": "name",
							"value": "Katana Zoro",
							"type": "text"
						},
						{
							"key": "description",
							"value": "Katana Zoro",
							"type": "text"
						},
						{
							"key": "base_price",
							"value": "499000",
							"type": "text"
						},
						{
							"key": "category_ids",
							"value": "2",
							"type": "text"
						},
						{
							"key": "location",
							"value": "Jakarta",
							"type": "text"
						},
						{
							"key": "image",
							"type": "file",
							"src": "/C:/Users/adihadi/Documents/QA Course/Challange Fix/katana-zoro.jpg"
						}
					]
				},
				"url": {
					"raw": "{{base.url}}/seller/product?access_token=bearer {{base.token}}",
					"host": [
						"{{base.url}}"
					],
					"path": [
						"seller",
						"product"
					],
					"query": [
						{
							"key": "access_token",
							"value": "bearer {{base.token}}"
						}
					]
				}
			},
			"response": [
				{
					"name": "Post seller product katana zoro",
					"originalRequest": {
						"method": "POST",
						"header": [
							{
								"key": "access_token",
								"value": "{{base.token}}",
								"type": "text"
							}
						],
						"body": {
							"mode": "formdata",
							"formdata": [
								{
									"key": "name",
									"value": "Katana Zoro",
									"type": "text"
								},
								{
									"key": "description",
									"value": "Katana Zoro",
									"type": "text"
								},
								{
									"key": "base_price",
									"value": "499000",
									"type": "text"
								},
								{
									"key": "category_ids",
									"value": "2",
									"type": "text"
								},
								{
									"key": "location",
									"value": "Jakarta",
									"type": "text"
								},
								{
									"key": "image",
									"type": "file",
									"src": "/C:/Users/adihadi/Documents/QA Course/Challange Fix/katana-zoro.jpg"
								}
							]
						},
						"url": {
							"raw": "{{base.url}}/seller/product?access_token=bearer {{base.token}}",
							"host": [
								"{{base.url}}"
							],
							"path": [
								"seller",
								"product"
							],
							"query": [
								{
									"key": "access_token",
									"value": "bearer {{base.token}}"
								}
							]
						}
					},
					"status": "Created",
					"code": 201,
					"_postman_previewlanguage": "json",
					"header": [
						{
							"key": "Server",
							"value": "Cowboy"
						},
						{
							"key": "Connection",
							"value": "keep-alive"
						},
						{
							"key": "X-Powered-By",
							"value": "Express"
						},
						{
							"key": "Access-Control-Allow-Origin",
							"value": "*"
						},
						{
							"key": "Content-Type",
							"value": "application/json; charset=utf-8"
						},
						{
							"key": "Content-Length",
							"value": "410"
						},
						{
							"key": "Etag",
							"value": "W/\"19a-n0W8t2R/t9OXjrCkC/swpcVElKs\""
						},
						{
							"key": "Date",
							"value": "Thu, 25 Aug 2022 14:20:55 GMT"
						},
						{
							"key": "Via",
							"value": "1.1 vegur"
						}
					],
					"cookie": [],
					"body": "{\n    \"id\": 1288,\n    \"name\": \"Katana Zoro\",\n    \"description\": \"Katana Zoro\",\n    \"base_price\": 499000,\n    \"location\": \"Jakarta\",\n    \"user_id\": 6465,\n    \"image_url\": \"https://firebasestorage.googleapis.com/v0/b/market-final-project.appspot.com/o/products%2FPR-1661437255732-katana-zoro.jpg?alt=media\",\n    \"image_name\": \"PR-1661437255732-katana-zoro.jpg\",\n    \"updatedAt\": \"2022-08-25T14:20:55.742Z\",\n    \"createdAt\": \"2022-08-25T14:20:55.742Z\",\n    \"status\": \"available\"\n}"
				}
			]
		},
		{
			"name": "Post seller product chopper hat",
			"event": [
				{
					"listen": "test",
					"script": {
						"exec": [
							"pm.test(\"Status code is 201\", function () {\r",
							"    pm.response.to.have.status(201);\r",
							"});\r",
							"pm.test(\"Response time is less than 200ms\", function () {\r",
							"    pm.expect(pm.response.responseTime).to.be.below(200);\r",
							"});"
						],
						"type": "text/javascript"
					}
				}
			],
			"request": {
				"method": "POST",
				"header": [
					{
						"key": "access_token",
						"value": "{{base.token}}",
						"type": "text"
					}
				],
				"body": {
					"mode": "formdata",
					"formdata": [
						{
							"key": "name",
							"value": "chopper hat",
							"type": "text"
						},
						{
							"key": "description",
							"value": "chopper hat",
							"type": "text"
						},
						{
							"key": "base_price",
							"value": "299000",
							"type": "text"
						},
						{
							"key": "category_ids",
							"value": "3",
							"type": "text"
						},
						{
							"key": "location",
							"value": "Jakarta",
							"type": "text"
						},
						{
							"key": "image",
							"type": "file",
							"src": "/C:/Users/adihadi/Documents/QA Course/Challange Fix/chopper hat.jpg"
						}
					]
				},
				"url": {
					"raw": "{{base.url}}/seller/product?access_token=bearer {{base.token}}",
					"host": [
						"{{base.url}}"
					],
					"path": [
						"seller",
						"product"
					],
					"query": [
						{
							"key": "access_token",
							"value": "bearer {{base.token}}"
						}
					]
				}
			},
			"response": [
				{
					"name": "Post seller product chopper hat",
					"originalRequest": {
						"method": "POST",
						"header": [
							{
								"key": "access_token",
								"value": "{{base.token}}",
								"type": "text"
							}
						],
						"body": {
							"mode": "formdata",
							"formdata": [
								{
									"key": "name",
									"value": "chopper hat",
									"type": "text"
								},
								{
									"key": "description",
									"value": "chopper hat",
									"type": "text"
								},
								{
									"key": "base_price",
									"value": "299000",
									"type": "text"
								},
								{
									"key": "category_ids",
									"value": "3",
									"type": "text"
								},
								{
									"key": "location",
									"value": "Jakarta",
									"type": "text"
								},
								{
									"key": "image",
									"type": "file",
									"src": "/C:/Users/adihadi/Documents/QA Course/Challange Fix/chopper hat.jpg"
								}
							]
						},
						"url": {
							"raw": "{{base.url}}/seller/product?access_token=bearer {{base.token}}",
							"host": [
								"{{base.url}}"
							],
							"path": [
								"seller",
								"product"
							],
							"query": [
								{
									"key": "access_token",
									"value": "bearer {{base.token}}"
								}
							]
						}
					},
					"status": "Created",
					"code": 201,
					"_postman_previewlanguage": "json",
					"header": [
						{
							"key": "Server",
							"value": "Cowboy"
						},
						{
							"key": "Connection",
							"value": "keep-alive"
						},
						{
							"key": "X-Powered-By",
							"value": "Express"
						},
						{
							"key": "Access-Control-Allow-Origin",
							"value": "*"
						},
						{
							"key": "Content-Type",
							"value": "application/json; charset=utf-8"
						},
						{
							"key": "Content-Length",
							"value": "410"
						},
						{
							"key": "Etag",
							"value": "W/\"19a-8kSY5PKEPYIaMETp+nmtEd8yW64\""
						},
						{
							"key": "Date",
							"value": "Thu, 25 Aug 2022 14:24:43 GMT"
						},
						{
							"key": "Via",
							"value": "1.1 vegur"
						}
					],
					"cookie": [],
					"body": "{\n    \"id\": 1290,\n    \"name\": \"chopper hat\",\n    \"description\": \"chopper hat\",\n    \"base_price\": 299000,\n    \"location\": \"Jakarta\",\n    \"user_id\": 6465,\n    \"image_url\": \"https://firebasestorage.googleapis.com/v0/b/market-final-project.appspot.com/o/products%2FPR-1661437483239-chopper_hat.jpg?alt=media\",\n    \"image_name\": \"PR-1661437483239-chopper_hat.jpg\",\n    \"updatedAt\": \"2022-08-25T14:24:43.245Z\",\n    \"createdAt\": \"2022-08-25T14:24:43.245Z\",\n    \"status\": \"available\"\n}"
				}
			]
		},
		{
			"name": "Get seller product",
			"event": [
				{
					"listen": "test",
					"script": {
						"exec": [
							"pm.test(\"Status code is 200\", function () {\r",
							"    pm.response.to.have.status(200);\r",
							"});"
						],
						"type": "text/javascript"
					}
				}
			],
			"request": {
				"method": "GET",
				"header": [
					{
						"key": "access_token",
						"value": "{{base.token}}",
						"type": "text"
					}
				],
				"url": {
					"raw": "{{base.url}}/seller/product?access_token=bearer {{base.token}}",
					"host": [
						"{{base.url}}"
					],
					"path": [
						"seller",
						"product"
					],
					"query": [
						{
							"key": "access_token",
							"value": "bearer {{base.token}}"
						}
					]
				}
			},
			"response": [
				{
					"name": "Get seller product",
					"originalRequest": {
						"method": "GET",
						"header": [
							{
								"key": "access_token",
								"value": "{{base.token}}",
								"type": "text"
							}
						],
						"url": {
							"raw": "{{base.url}}/seller/product?access_token=bearer {{base.token}}",
							"host": [
								"{{base.url}}"
							],
							"path": [
								"seller",
								"product"
							],
							"query": [
								{
									"key": "access_token",
									"value": "bearer {{base.token}}"
								}
							]
						}
					},
					"status": "OK",
					"code": 200,
					"_postman_previewlanguage": "json",
					"header": [
						{
							"key": "Server",
							"value": "Cowboy"
						},
						{
							"key": "Connection",
							"value": "keep-alive"
						},
						{
							"key": "X-Powered-By",
							"value": "Express"
						},
						{
							"key": "Access-Control-Allow-Origin",
							"value": "*"
						},
						{
							"key": "Content-Type",
							"value": "application/json; charset=utf-8"
						},
						{
							"key": "Content-Length",
							"value": "1391"
						},
						{
							"key": "Etag",
							"value": "W/\"56f-a160Rae9rqsLbtRoJZDKCDY9JO8\""
						},
						{
							"key": "Date",
							"value": "Thu, 25 Aug 2022 14:28:00 GMT"
						},
						{
							"key": "Via",
							"value": "1.1 vegur"
						}
					],
					"cookie": [],
					"body": "[\n    {\n        \"id\": 1283,\n        \"name\": \"Straw Hat Luffy\",\n        \"description\": \"Straw Hat Luffy\",\n        \"base_price\": 359000,\n        \"image_url\": \"https://firebasestorage.googleapis.com/v0/b/market-final-project.appspot.com/o/products%2FPR-1661436910071-Luffy-4.jpg?alt=media\",\n        \"image_name\": \"PR-1661436910071-Luffy-4.jpg\",\n        \"location\": \"Jakarta\",\n        \"user_id\": 6465,\n        \"status\": \"available\",\n        \"createdAt\": \"2022-08-25T14:15:10.078Z\",\n        \"updatedAt\": \"2022-08-25T14:15:10.078Z\",\n        \"Categories\": [\n            {\n                \"id\": 1,\n                \"name\": \"Elektronik\"\n            }\n        ]\n    },\n    {\n        \"id\": 1288,\n        \"name\": \"Katana Zoro\",\n        \"description\": \"Katana Zoro\",\n        \"base_price\": 499000,\n        \"image_url\": \"https://firebasestorage.googleapis.com/v0/b/market-final-project.appspot.com/o/products%2FPR-1661437255732-katana-zoro.jpg?alt=media\",\n        \"image_name\": \"PR-1661437255732-katana-zoro.jpg\",\n        \"location\": \"Jakarta\",\n        \"user_id\": 6465,\n        \"status\": \"available\",\n        \"createdAt\": \"2022-08-25T14:20:55.742Z\",\n        \"updatedAt\": \"2022-08-25T14:20:55.742Z\",\n        \"Categories\": [\n            {\n                \"id\": 2,\n                \"name\": \"Komputer dan Aksesoris\"\n            }\n        ]\n    },\n    {\n        \"id\": 1290,\n        \"name\": \"chopper hat\",\n        \"description\": \"chopper hat\",\n        \"base_price\": 299000,\n        \"image_url\": \"https://firebasestorage.googleapis.com/v0/b/market-final-project.appspot.com/o/products%2FPR-1661437483239-chopper_hat.jpg?alt=media\",\n        \"image_name\": \"PR-1661437483239-chopper_hat.jpg\",\n        \"location\": \"Jakarta\",\n        \"user_id\": 6465,\n        \"status\": \"available\",\n        \"createdAt\": \"2022-08-25T14:24:43.245Z\",\n        \"updatedAt\": \"2022-08-25T14:24:43.245Z\",\n        \"Categories\": [\n            {\n                \"id\": 3,\n                \"name\": \"Handphone dan Aksesoris\"\n            }\n        ]\n    }\n]"
				}
			]
		},
		{
			"name": "Get seller product Id",
			"event": [
				{
					"listen": "test",
					"script": {
						"exec": [
							"pm.test(\"Status code is 200\", function () {\r",
							"    pm.response.to.have.status(200);\r",
							"});\r",
							""
						],
						"type": "text/javascript"
					}
				}
			],
			"request": {
				"method": "GET",
				"header": [
					{
						"key": "access_token",
						"value": "{{base.token}}",
						"type": "text"
					},
					{
						"key": "id",
						"value": "1277",
						"type": "text"
					}
				],
				"url": {
					"raw": "{{base.url}}/seller/product/1283?access_token=bearer {{base.token}}&id=1283",
					"host": [
						"{{base.url}}"
					],
					"path": [
						"seller",
						"product",
						"1283"
					],
					"query": [
						{
							"key": "access_token",
							"value": "bearer {{base.token}}"
						},
						{
							"key": "id",
							"value": "1283"
						}
					]
				}
			},
			"response": [
				{
					"name": "Get seller product Id",
					"originalRequest": {
						"method": "GET",
						"header": [
							{
								"key": "access_token",
								"value": "{{base.token}}",
								"type": "text"
							},
							{
								"key": "id",
								"value": "1277",
								"type": "text"
							}
						],
						"url": {
							"raw": "{{base.url}}/seller/product/1283?access_token=bearer {{base.token}}&id=1283",
							"host": [
								"{{base.url}}"
							],
							"path": [
								"seller",
								"product",
								"1283"
							],
							"query": [
								{
									"key": "access_token",
									"value": "bearer {{base.token}}"
								},
								{
									"key": "id",
									"value": "1283"
								}
							]
						}
					},
					"status": "OK",
					"code": 200,
					"_postman_previewlanguage": "json",
					"header": [
						{
							"key": "Server",
							"value": "Cowboy"
						},
						{
							"key": "Connection",
							"value": "keep-alive"
						},
						{
							"key": "X-Powered-By",
							"value": "Express"
						},
						{
							"key": "Access-Control-Allow-Origin",
							"value": "*"
						},
						{
							"key": "Content-Type",
							"value": "application/json; charset=utf-8"
						},
						{
							"key": "Content-Length",
							"value": "454"
						},
						{
							"key": "Etag",
							"value": "W/\"1c6-pMMBqUySOtNIIf/pWq9eyXYepSw\""
						},
						{
							"key": "Date",
							"value": "Thu, 25 Aug 2022 14:30:58 GMT"
						},
						{
							"key": "Via",
							"value": "1.1 vegur"
						}
					],
					"cookie": [],
					"body": "{\n    \"id\": 1283,\n    \"name\": \"Straw Hat Luffy\",\n    \"description\": \"Straw Hat Luffy\",\n    \"base_price\": 359000,\n    \"image_url\": \"https://firebasestorage.googleapis.com/v0/b/market-final-project.appspot.com/o/products%2FPR-1661436910071-Luffy-4.jpg?alt=media\",\n    \"image_name\": \"PR-1661436910071-Luffy-4.jpg\",\n    \"location\": \"Jakarta\",\n    \"user_id\": 6465,\n    \"status\": \"available\",\n    \"createdAt\": \"2022-08-25T14:15:10.078Z\",\n    \"updatedAt\": \"2022-08-25T14:15:10.078Z\",\n    \"Categories\": [\n        {\n            \"id\": 1,\n            \"name\": \"Elektronik\"\n        }\n    ]\n}"
				}
			]
		},
		{
			"name": "Get seller product straw hat",
			"event": [
				{
					"listen": "test",
					"script": {
						"exec": [
							"pm.test(\"Status code is 200\", function () {\r",
							"    pm.response.to.have.status(200);\r",
							"});"
						],
						"type": "text/javascript"
					}
				}
			],
			"request": {
				"method": "DELETE",
				"header": [
					{
						"key": "access_token",
						"value": "{{base.token}}",
						"type": "text"
					},
					{
						"key": "id",
						"value": "1277",
						"type": "text"
					}
				],
				"url": {
					"raw": "{{base.url}}/seller/product/1283?access_token=bearer {{base.token}}&id=1283",
					"host": [
						"{{base.url}}"
					],
					"path": [
						"seller",
						"product",
						"1283"
					],
					"query": [
						{
							"key": "access_token",
							"value": "bearer {{base.token}}"
						},
						{
							"key": "id",
							"value": "1283"
						}
					]
				}
			},
			"response": []
		},
		{
			"name": "Get buyer product straw hat",
			"event": [
				{
					"listen": "test",
					"script": {
						"exec": [
							"pm.test(\"Status code is 200\", function () {\r",
							"    pm.response.to.have.status(200);\r",
							"});"
						],
						"type": "text/javascript"
					}
				}
			],
			"request": {
				"method": "GET",
				"header": [],
				"url": {
					"raw": "{{base.url}}/buyer/product?status=available&category_id=1&search=Luffy&page=1&per_page=1",
					"host": [
						"{{base.url}}"
					],
					"path": [
						"buyer",
						"product"
					],
					"query": [
						{
							"key": "status",
							"value": "available"
						},
						{
							"key": "category_id",
							"value": "1"
						},
						{
							"key": "search",
							"value": "Luffy"
						},
						{
							"key": "page",
							"value": "1"
						},
						{
							"key": "per_page",
							"value": "1"
						}
					]
				}
			},
			"response": [
				{
					"name": "Get buyer product straw hat",
					"originalRequest": {
						"method": "GET",
						"header": [],
						"url": {
							"raw": "{{base.url}}/buyer/product?status=available&category_id=1&search=Luffy&page=1&per_page=1",
							"host": [
								"{{base.url}}"
							],
							"path": [
								"buyer",
								"product"
							],
							"query": [
								{
									"key": "status",
									"value": "available"
								},
								{
									"key": "category_id",
									"value": "1"
								},
								{
									"key": "search",
									"value": "Luffy"
								},
								{
									"key": "page",
									"value": "1"
								},
								{
									"key": "per_page",
									"value": "1"
								}
							]
						}
					},
					"status": "OK",
					"code": 200,
					"_postman_previewlanguage": "json",
					"header": [
						{
							"key": "Server",
							"value": "Cowboy"
						},
						{
							"key": "Connection",
							"value": "keep-alive"
						},
						{
							"key": "X-Powered-By",
							"value": "Express"
						},
						{
							"key": "Access-Control-Allow-Origin",
							"value": "*"
						},
						{
							"key": "Content-Type",
							"value": "application/json; charset=utf-8"
						},
						{
							"key": "Content-Length",
							"value": "456"
						},
						{
							"key": "Etag",
							"value": "W/\"1c8-psK6OBEwSJqOAM50FJTYKeEowj4\""
						},
						{
							"key": "Date",
							"value": "Thu, 25 Aug 2022 15:17:31 GMT"
						},
						{
							"key": "Via",
							"value": "1.1 vegur"
						}
					],
					"cookie": [],
					"body": "[\n    {\n        \"id\": 1283,\n        \"name\": \"Straw Hat Luffy\",\n        \"description\": \"Straw Hat Luffy\",\n        \"base_price\": 359000,\n        \"image_url\": \"https://firebasestorage.googleapis.com/v0/b/market-final-project.appspot.com/o/products%2FPR-1661436910071-Luffy-4.jpg?alt=media\",\n        \"image_name\": \"PR-1661436910071-Luffy-4.jpg\",\n        \"location\": \"Jakarta\",\n        \"user_id\": 6465,\n        \"status\": \"available\",\n        \"createdAt\": \"2022-08-25T14:15:10.078Z\",\n        \"updatedAt\": \"2022-08-25T14:15:10.078Z\",\n        \"Categories\": [\n            {\n                \"id\": 1,\n                \"name\": \"Elektronik\"\n            }\n        ]\n    }\n]"
				}
			]
		},
		{
			"name": "Get buyer prouct id ",
			"request": {
				"method": "GET",
				"header": [],
				"url": {
					"raw": "{{base.url}}/buyer/product/1288",
					"host": [
						"{{base.url}}"
					],
					"path": [
						"buyer",
						"product",
						"1288"
					]
				}
			},
			"response": [
				{
					"name": "Get buyer prouct id ",
					"originalRequest": {
						"method": "GET",
						"header": [],
						"url": {
							"raw": "{{base.url}}/buyer/product/1288",
							"host": [
								"{{base.url}}"
							],
							"path": [
								"buyer",
								"product",
								"1288"
							]
						}
					},
					"status": "OK",
					"code": 200,
					"_postman_previewlanguage": "json",
					"header": [
						{
							"key": "Server",
							"value": "Cowboy"
						},
						{
							"key": "Connection",
							"value": "keep-alive"
						},
						{
							"key": "X-Powered-By",
							"value": "Express"
						},
						{
							"key": "Access-Control-Allow-Origin",
							"value": "*"
						},
						{
							"key": "Content-Type",
							"value": "application/json; charset=utf-8"
						},
						{
							"key": "Content-Length",
							"value": "638"
						},
						{
							"key": "Etag",
							"value": "W/\"27e-3a1pvHB1EGeAVp3kqip7ow8Xl7U\""
						},
						{
							"key": "Date",
							"value": "Thu, 25 Aug 2022 15:16:35 GMT"
						},
						{
							"key": "Via",
							"value": "1.1 vegur"
						}
					],
					"cookie": [],
					"body": "{\n    \"id\": 1288,\n    \"name\": \"Katana Zoro\",\n    \"description\": \"Katana Zoro\",\n    \"base_price\": 499000,\n    \"image_url\": \"https://firebasestorage.googleapis.com/v0/b/market-final-project.appspot.com/o/products%2FPR-1661437255732-katana-zoro.jpg?alt=media\",\n    \"image_name\": \"PR-1661437255732-katana-zoro.jpg\",\n    \"location\": \"Jakarta\",\n    \"user_id\": 6465,\n    \"status\": \"available\",\n    \"createdAt\": \"2022-08-25T14:20:55.742Z\",\n    \"updatedAt\": \"2022-08-25T14:20:55.742Z\",\n    \"Categories\": [\n        {\n            \"id\": 2,\n            \"name\": \"Komputer dan Aksesoris\"\n        }\n    ],\n    \"User\": {\n        \"id\": 6465,\n        \"full_name\": \"Hadi\",\n        \"email\": \"hadi008@gmail.com\",\n        \"phone_number\": \"087889247883\",\n        \"address\": \"Jl. Daan Mogot, Jakarta Barat\",\n        \"image_url\": null,\n        \"city\": \"jakarta\"\n    }\n}"
				}
			]
		},
		{
			"name": "Post buyer order",
			"event": [
				{
					"listen": "test",
					"script": {
						"exec": [
							"pm.test(\"Status code is 200\", function () {\r",
							"    pm.response.to.have.status(200);\r",
							"});"
						],
						"type": "text/javascript"
					}
				}
			],
			"request": {
				"method": "POST",
				"header": [
					{
						"key": "access_token",
						"value": "{{base.token}}",
						"type": "text"
					}
				],
				"body": {
					"mode": "raw",
					"raw": "{\r\n  \"product_id\": 1280,\r\n  \"bid_price\": 1000000\r\n}",
					"options": {
						"raw": {
							"language": "json"
						}
					}
				},
				"url": {
					"raw": "{{base.url}}/buyer/order",
					"host": [
						"{{base.url}}"
					],
					"path": [
						"buyer",
						"order"
					],
					"query": [
						{
							"key": "access_token",
							"value": "bearer {{base.token}}",
							"disabled": true
						}
					]
				}
			},
			"response": [
				{
					"name": "Post buyer order",
					"originalRequest": {
						"method": "POST",
						"header": [
							{
								"key": "access_token",
								"value": "{{base.token}}",
								"type": "text"
							}
						],
						"body": {
							"mode": "raw",
							"raw": "{\r\n  \"product_id\": 1280,\r\n  \"bid_price\": 1000000\r\n}",
							"options": {
								"raw": {
									"language": "json"
								}
							}
						},
						"url": {
							"raw": "{{base.url}}/buyer/order",
							"host": [
								"{{base.url}}"
							],
							"path": [
								"buyer",
								"order"
							],
							"query": [
								{
									"key": "access_token",
									"value": "bearer {{base.token}}",
									"disabled": true
								}
							]
						}
					},
					"status": "Created",
					"code": 201,
					"_postman_previewlanguage": "json",
					"header": [
						{
							"key": "Server",
							"value": "Cowboy"
						},
						{
							"key": "Connection",
							"value": "keep-alive"
						},
						{
							"key": "X-Powered-By",
							"value": "Express"
						},
						{
							"key": "Access-Control-Allow-Origin",
							"value": "*"
						},
						{
							"key": "Content-Type",
							"value": "application/json; charset=utf-8"
						},
						{
							"key": "Content-Length",
							"value": "397"
						},
						{
							"key": "Etag",
							"value": "W/\"18d-8cgwPC5ijCo6udiX/X+cC2oMDew\""
						},
						{
							"key": "Date",
							"value": "Thu, 25 Aug 2022 15:43:30 GMT"
						},
						{
							"key": "Via",
							"value": "1.1 vegur"
						}
					],
					"cookie": [],
					"body": "{\n    \"id\": 1251,\n    \"buyer_id\": 6465,\n    \"product_id\": 1280,\n    \"price\": 1000000,\n    \"product_name\": \"ROG Phone 5\",\n    \"base_price\": 8000000,\n    \"image_product\": \"https://firebasestorage.googleapis.com/v0/b/market-final-project.appspot.com/o/products%2FPR-1661436429301-rog.jpg?alt=media\",\n    \"transaction_date\": \"2022-08-25T15:43:30.205Z\",\n    \"updatedAt\": \"2022-08-25T15:43:30.205Z\",\n    \"createdAt\": \"2022-08-25T15:43:30.205Z\",\n    \"status\": \"pending\"\n}"
				}
			]
		},
		{
			"name": "Get buyer order",
			"event": [
				{
					"listen": "test",
					"script": {
						"exec": [
							"pm.test(\"Status code is 200\", function () {\r",
							"    pm.response.to.have.status(200);\r",
							"});"
						],
						"type": "text/javascript"
					}
				}
			],
			"protocolProfileBehavior": {
				"disableBodyPruning": true
			},
			"request": {
				"method": "GET",
				"header": [
					{
						"key": "access_token",
						"value": "{{base.token}}",
						"type": "text"
					}
				],
				"body": {
					"mode": "raw",
					"raw": ""
				},
				"url": {
					"raw": "{{base.url}}/buyer/order",
					"host": [
						"{{base.url}}"
					],
					"path": [
						"buyer",
						"order"
					],
					"query": [
						{
							"key": "access_token",
							"value": "bearer {{base.token}}",
							"disabled": true
						}
					]
				}
			},
			"response": [
				{
					"name": "Get buyer order",
					"originalRequest": {
						"method": "GET",
						"header": [
							{
								"key": "access_token",
								"value": "{{base.token}}",
								"type": "text"
							}
						],
						"body": {
							"mode": "raw",
							"raw": ""
						},
						"url": {
							"raw": "{{base.url}}/buyer/order",
							"host": [
								"{{base.url}}"
							],
							"path": [
								"buyer",
								"order"
							],
							"query": [
								{
									"key": "access_token",
									"value": "bearer {{base.token}}",
									"disabled": true
								}
							]
						}
					},
					"status": "OK",
					"code": 200,
					"_postman_previewlanguage": "json",
					"header": [
						{
							"key": "Server",
							"value": "Cowboy"
						},
						{
							"key": "Connection",
							"value": "keep-alive"
						},
						{
							"key": "X-Powered-By",
							"value": "Express"
						},
						{
							"key": "Access-Control-Allow-Origin",
							"value": "*"
						},
						{
							"key": "Content-Type",
							"value": "application/json; charset=utf-8"
						},
						{
							"key": "Content-Length",
							"value": "931"
						},
						{
							"key": "Etag",
							"value": "W/\"3a3-0wWlAQL/Vl8QpPMYWP7Du9+hTgo\""
						},
						{
							"key": "Date",
							"value": "Thu, 25 Aug 2022 15:44:43 GMT"
						},
						{
							"key": "Via",
							"value": "1.1 vegur"
						}
					],
					"cookie": [],
					"body": "[\n    {\n        \"id\": 1251,\n        \"product_id\": 1280,\n        \"buyer_id\": 6465,\n        \"price\": 1000000,\n        \"transaction_date\": \"2022-08-25T15:43:30.205Z\",\n        \"product_name\": \"ROG Phone 5\",\n        \"base_price\": 8000000,\n        \"image_product\": \"https://firebasestorage.googleapis.com/v0/b/market-final-project.appspot.com/o/products%2FPR-1661436429301-rog.jpg?alt=media\",\n        \"status\": \"pending\",\n        \"Product\": {\n            \"name\": \"ROG Phone 5\",\n            \"description\": \"HP gaming \",\n            \"base_price\": 8000000,\n            \"image_url\": \"https://firebasestorage.googleapis.com/v0/b/market-final-project.appspot.com/o/products%2FPR-1661436429301-rog.jpg?alt=media\",\n            \"image_name\": \"PR-1661436429301-rog.jpg\",\n            \"location\": \"Jakarta\",\n            \"user_id\": 6464,\n            \"status\": \"available\",\n            \"User\": {\n                \"id\": 6464,\n                \"full_name\": \"Cahyadi\",\n                \"email\": \"cahyadi01@gmail.com\",\n                \"phone_number\": \"08521123456789\",\n                \"address\": \"Wadas\",\n                \"city\": \"Jakarta\"\n            }\n        },\n        \"User\": {\n            \"id\": 6465,\n            \"full_name\": \"Hadi\",\n            \"email\": \"hadi008@gmail.com\",\n            \"phone_number\": \"087889247883\",\n            \"address\": \"Jl. Daan Mogot, Jakarta Barat\",\n            \"city\": \"jakarta\"\n        }\n    }\n]"
				},
				{
					"name": "Get buyer order",
					"originalRequest": {
						"method": "GET",
						"header": [
							{
								"key": "access_token",
								"value": "{{base.token}}",
								"type": "text"
							}
						],
						"body": {
							"mode": "raw",
							"raw": ""
						},
						"url": {
							"raw": "{{base.url}}/buyer/order",
							"host": [
								"{{base.url}}"
							],
							"path": [
								"buyer",
								"order"
							],
							"query": [
								{
									"key": "access_token",
									"value": "bearer {{base.token}}",
									"disabled": true
								}
							]
						}
					},
					"status": "OK",
					"code": 200,
					"_postman_previewlanguage": "json",
					"header": [
						{
							"key": "Server",
							"value": "Cowboy"
						},
						{
							"key": "Connection",
							"value": "keep-alive"
						},
						{
							"key": "X-Powered-By",
							"value": "Express"
						},
						{
							"key": "Access-Control-Allow-Origin",
							"value": "*"
						},
						{
							"key": "Content-Type",
							"value": "application/json; charset=utf-8"
						},
						{
							"key": "Content-Length",
							"value": "931"
						},
						{
							"key": "Etag",
							"value": "W/\"3a3-0wWlAQL/Vl8QpPMYWP7Du9+hTgo\""
						},
						{
							"key": "Date",
							"value": "Thu, 25 Aug 2022 15:54:25 GMT"
						},
						{
							"key": "Via",
							"value": "1.1 vegur"
						}
					],
					"cookie": [],
					"body": "[\n    {\n        \"id\": 1251,\n        \"product_id\": 1280,\n        \"buyer_id\": 6465,\n        \"price\": 1000000,\n        \"transaction_date\": \"2022-08-25T15:43:30.205Z\",\n        \"product_name\": \"ROG Phone 5\",\n        \"base_price\": 8000000,\n        \"image_product\": \"https://firebasestorage.googleapis.com/v0/b/market-final-project.appspot.com/o/products%2FPR-1661436429301-rog.jpg?alt=media\",\n        \"status\": \"pending\",\n        \"Product\": {\n            \"name\": \"ROG Phone 5\",\n            \"description\": \"HP gaming \",\n            \"base_price\": 8000000,\n            \"image_url\": \"https://firebasestorage.googleapis.com/v0/b/market-final-project.appspot.com/o/products%2FPR-1661436429301-rog.jpg?alt=media\",\n            \"image_name\": \"PR-1661436429301-rog.jpg\",\n            \"location\": \"Jakarta\",\n            \"user_id\": 6464,\n            \"status\": \"available\",\n            \"User\": {\n                \"id\": 6464,\n                \"full_name\": \"Cahyadi\",\n                \"email\": \"cahyadi01@gmail.com\",\n                \"phone_number\": \"08521123456789\",\n                \"address\": \"Wadas\",\n                \"city\": \"Jakarta\"\n            }\n        },\n        \"User\": {\n            \"id\": 6465,\n            \"full_name\": \"Hadi\",\n            \"email\": \"hadi008@gmail.com\",\n            \"phone_number\": \"087889247883\",\n            \"address\": \"Jl. Daan Mogot, Jakarta Barat\",\n            \"city\": \"jakarta\"\n        }\n    }\n]"
				}
			]
		},
		{
			"name": "Get buyer order id",
			"event": [
				{
					"listen": "test",
					"script": {
						"exec": [
							"pm.test(\"Status code is 200\", function () {\r",
							"    pm.response.to.have.status(200);\r",
							"});"
						],
						"type": "text/javascript"
					}
				}
			],
			"request": {
				"method": "GET",
				"header": [
					{
						"key": "access_token",
						"value": "{{base.token}}",
						"type": "text"
					},
					{
						"key": "id",
						"value": "1280",
						"type": "text"
					}
				],
				"url": {
					"raw": "{{base.url}}/buyer/order/1251",
					"host": [
						"{{base.url}}"
					],
					"path": [
						"buyer",
						"order",
						"1251"
					]
				}
			},
			"response": []
		},
		{
			"name": "put buyer order id",
			"event": [
				{
					"listen": "test",
					"script": {
						"exec": [
							"pm.test(\"Status code is 200\", function () {\r",
							"    pm.response.to.have.status(200);\r",
							"});"
						],
						"type": "text/javascript"
					}
				}
			],
			"request": {
				"method": "PUT",
				"header": [
					{
						"key": "access_token",
						"value": "{{base.token}}",
						"type": "text"
					},
					{
						"key": "id",
						"value": "1251",
						"type": "text"
					}
				],
				"body": {
					"mode": "raw",
					"raw": "{\r\n  \"bid_price\": 10000009\r\n}",
					"options": {
						"raw": {
							"language": "json"
						}
					}
				},
				"url": {
					"raw": "{{base.url}}/buyer/order/1251",
					"host": [
						"{{base.url}}"
					],
					"path": [
						"buyer",
						"order",
						"1251"
					]
				}
			},
			"response": [
				{
					"name": "put buyer order id",
					"originalRequest": {
						"method": "PUT",
						"header": [
							{
								"key": "access_token",
								"value": "{{base.token}}",
								"type": "text"
							},
							{
								"key": "id",
								"value": "1251",
								"type": "text"
							}
						],
						"body": {
							"mode": "raw",
							"raw": "{\r\n  \"bid_price\": 10000009\r\n}",
							"options": {
								"raw": {
									"language": "json"
								}
							}
						},
						"url": {
							"raw": "{{base.url}}/buyer/order/1251",
							"host": [
								"{{base.url}}"
							],
							"path": [
								"buyer",
								"order",
								"1251"
							]
						}
					},
					"status": "OK",
					"code": 200,
					"_postman_previewlanguage": "json",
					"header": [
						{
							"key": "Server",
							"value": "Cowboy"
						},
						{
							"key": "Connection",
							"value": "keep-alive"
						},
						{
							"key": "X-Powered-By",
							"value": "Express"
						},
						{
							"key": "Access-Control-Allow-Origin",
							"value": "*"
						},
						{
							"key": "Content-Type",
							"value": "application/json; charset=utf-8"
						},
						{
							"key": "Content-Length",
							"value": "398"
						},
						{
							"key": "Etag",
							"value": "W/\"18e-u0wMsjSHo2hei0gGzOqD2Awk3ss\""
						},
						{
							"key": "Date",
							"value": "Thu, 25 Aug 2022 15:59:34 GMT"
						},
						{
							"key": "Via",
							"value": "1.1 vegur"
						}
					],
					"cookie": [],
					"body": "{\n    \"id\": 1251,\n    \"product_id\": 1280,\n    \"buyer_id\": 6465,\n    \"price\": 10000009,\n    \"transaction_date\": \"2022-08-25T15:43:30.205Z\",\n    \"product_name\": \"ROG Phone 5\",\n    \"base_price\": 8000000,\n    \"image_product\": \"https://firebasestorage.googleapis.com/v0/b/market-final-project.appspot.com/o/products%2FPR-1661436429301-rog.jpg?alt=media\",\n    \"status\": \"pending\",\n    \"createdAt\": \"2022-08-25T15:43:30.205Z\",\n    \"updatedAt\": \"2022-08-25T15:59:34.032Z\"\n}"
				}
			]
		},
		{
			"name": "Post Login",
			"event": [
				{
					"listen": "test",
					"script": {
						"exec": [
							"pm.test(\"Status code is 201\", function () {\r",
							"    pm.response.to.have.status(201);\r",
							"});\r",
							"pm.test(\"Response time is less than 200ms\", function () {\r",
							"    pm.expect(pm.response.responseTime).to.be.below(200);\r",
							"});"
						],
						"type": "text/javascript"
					}
				}
			],
			"request": {
				"method": "POST",
				"header": [],
				"body": {
					"mode": "formdata",
					"formdata": [
						{
							"key": "email",
							"value": "hadi008@gmail.com",
							"type": "text"
						},
						{
							"key": "password",
							"value": "12345678",
							"type": "text"
						}
					]
				},
				"url": {
					"raw": "{{base.url}}/auth/login",
					"host": [
						"{{base.url}}"
					],
					"path": [
						"auth",
						"login"
					]
				}
			},
			"response": [
				{
					"name": "Post Login",
					"originalRequest": {
						"method": "POST",
						"header": [],
						"body": {
							"mode": "formdata",
							"formdata": [
								{
									"key": "email",
									"value": "hadi008@gmail.com",
									"type": "text"
								},
								{
									"key": "password",
									"value": "12345678",
									"type": "text"
								}
							]
						},
						"url": {
							"raw": "{{base.url}}/auth/login",
							"host": [
								"{{base.url}}"
							],
							"path": [
								"auth",
								"login"
							]
						}
					},
					"status": "Created",
					"code": 201,
					"_postman_previewlanguage": "json",
					"header": [
						{
							"key": "Server",
							"value": "Cowboy"
						},
						{
							"key": "Connection",
							"value": "keep-alive"
						},
						{
							"key": "X-Powered-By",
							"value": "Express"
						},
						{
							"key": "Access-Control-Allow-Origin",
							"value": "*"
						},
						{
							"key": "Content-Type",
							"value": "application/json; charset=utf-8"
						},
						{
							"key": "Content-Length",
							"value": "214"
						},
						{
							"key": "Etag",
							"value": "W/\"d6-0CY47bJUujQA7dFY9axvJPYn/FA\""
						},
						{
							"key": "Date",
							"value": "Thu, 25 Aug 2022 14:01:21 GMT"
						},
						{
							"key": "Via",
							"value": "1.1 vegur"
						}
					],
					"cookie": [],
					"body": "{\n    \"id\": 6465,\n    \"name\": \"Hadi\",\n    \"email\": \"hadi008@gmail.com\",\n    \"access_token\": \"eyJhbGciOiJIUzI1NiIsInR5cCI6IkpXVCJ9.eyJlbWFpbCI6ImhhZGkwMDhAZ21haWwuY29tIiwiaWF0IjoxNjYxNDM2MDgxfQ.NgOirLh4zaCvk8wT6s6wwMLmSu6Q7aitDJyCvND8SSk\"\n}"
				}
			]
		}
	]
}